{
  "templates": [
    {
      "name": "CPT Lisboa Tower",
      "type": "cpt",
      "call_sign": "LPPT_TWR",
      "rating": "S2",
      "text_right": false,
      "background_image_url": "https://gitlab.com/portugal-vacc/banner-templates/-/raw/master/cpt/lppt_twr.png",
      "logo_3_url": "https://gitlab.com/portugal-vacc/banner-templates/-/raw/master/logos/LogoPvACC.png"
    },
    {
      "name": "CPT Lisboa Approach",
      "type": "cpt",
      "call_sign": "LPPT_APP",
      "rating": "S3",
      "text_right": false,
      "background_image_url": "https://gitlab.com/portugal-vacc/banner-templates/-/raw/master/cpt/lppt_app.png",
      "logo_3_url": "https://gitlab.com/portugal-vacc/banner-templates/-/raw/master/logos/LogoPvACC.png"
    },
    {
      "name": "CPT Lisboa Control",
      "type": "cpt",
      "call_sign": "LPPC_CTR",
      "rating": "C1",
      "text_right": false,
      "background_image_url": "https://gitlab.com/portugal-vacc/banner-templates/-/raw/master/cpt/lppc.png",
      "logo_3_url": "https://gitlab.com/portugal-vacc/banner-templates/-/raw/master/logos/LogoPvACC.png"
    },
    {
      "name": "CPT Lisboa Control 3",
      "type": "cpt",
      "call_sign": "LPPC_CTR",
      "rating": "C3",
      "text_right": false,
      "background_image_url": "https://gitlab.com/portugal-vacc/banner-templates/-/raw/master/cpt/lppc.png",
      "logo_1_url": "https://gitlab.com/portugal-vacc/banner-templates/-/raw/master/logos/vateud.png",
      "logo_3_url": "https://gitlab.com/portugal-vacc/banner-templates/-/raw/master/logos/LogoPvACC.png"
    },
    {
      "name": "CPT Faro Tower",
      "type": "cpt",
      "call_sign": "LPFR_TWR",
      "rating": "S2",
      "text_right": false,
      "background_image_url": "https://gitlab.com/portugal-vacc/banner-templates/-/raw/master/cpt/lpfr_twr.png",
      "logo_3_url": "https://gitlab.com/portugal-vacc/banner-templates/-/raw/master/logos/LogoPvACC.png"
    },
    {
      "name": "CPT Faro Approach",
      "type": "cpt",
      "call_sign": "LPFR_APP",
      "rating": "S3",
      "text_right": false,
      "background_image_url": "https://gitlab.com/portugal-vacc/banner-templates/-/raw/master/cpt/lpfr_app.png",
      "logo_3_url": "https://gitlab.com/portugal-vacc/banner-templates/-/raw/master/logos/LogoPvACC.png"
    },
    {
      "name": "CPT Porto Tower",
      "type": "cpt",
      "call_sign": "LPPR_TWR",
      "rating": "S2",
      "text_right": false,
      "background_image_url": "https://gitlab.com/portugal-vacc/banner-templates/-/raw/master/cpt/lppr_twr.png",
      "logo_3_url": "https://gitlab.com/portugal-vacc/banner-templates/-/raw/master/logos/LogoPvACC.png"
    },
    {
      "name": "CPT Porto Approach",
      "type": "cpt",
      "call_sign": "LPPR_APP",
      "rating": "S3",
      "text_right": false,
      "background_image_url": "https://gitlab.com/portugal-vacc/banner-templates/-/raw/master/cpt/lppr_app.png",
      "logo_3_url": "https://gitlab.com/portugal-vacc/banner-templates/-/raw/master/logos/LogoPvACC.png"
    },
    {
      "name": "Trivia Monday",
      "type": "event",
      "text_right": false,
      "background_image_url": "https://gitlab.com/portugal-vacc/banner-templates/-/raw/master/trivia/Fiat_G-91_no_Museu_do_Ar.jpg",
      "logo_3_url": "https://gitlab.com/portugal-vacc/banner-templates/-/raw/master/logos/LogoPvACC.png"
    },
    {
      "name": "Lisboa Sectorized",
      "type": "event",
      "text_right": false,
      "background_image_url": "https://gitlab.com/portugal-vacc/banner-templates/-/raw/master/sectorized/lis_atc_room.jpg",
      "logo_3_url": "https://gitlab.com/portugal-vacc/banner-templates/-/raw/master/logos/LogoPvACC.png"
    },
    {
      "name": "Iberian Shuttle",
      "type": "event",
      "text_right": false,
      "background_image_url": "https://gitlab.com/portugal-vacc/banner-templates/-/raw/master/shuttle/spain_portugal_1921_1.jpg",
      "logo_1_url": "https://gitlab.com/portugal-vacc/banner-templates/-/raw/master/logos/VATSPA_LOGO.png",
      "logo_3_url": "https://gitlab.com/portugal-vacc/banner-templates/-/raw/master/logos/LogoPvACC.png"
    },
    {
      "name": "Portuguese Airbridge",
      "type": "event",
      "text_right": false,
      "background_image_url": "https://gitlab.com/portugal-vacc/banner-templates/-/raw/master/sectorized/lis_atc_room.jpg",
      "logo_3_url": "https://gitlab.com/portugal-vacc/banner-templates/-/raw/master/logos/LogoPvACC.png"
    }
  ]
}